<Qucs Schematic 24.2.0>
<Properties>
  <View=-317,96,1131,944,0.817829,146,0>
  <Grid=10,10,1>
  <DataSet=circuito_fuenteControlada.dat>
  <DataDisplay=circuito_fuenteControlada.dpl>
  <OpenDisplay=0>
  <Script=circuito_fuenteControlada.m>
  <RunScript=0>
  <showFrame=0>
  <FrameText0=Título>
  <FrameText1=Dibujado por:>
  <FrameText2=Fecha:>
  <FrameText3=Revisión:>
</Properties>
<Symbol>
</Symbol>
<Components>
  <R RL 1 710 230 15 -26 0 1 "1 kOhm" 1 "26.85" 0 "0.0" 0 "0.0" 0 "26.85" 0 "US" 0>
  <Vac V1 1 190 240 18 -26 0 1 "1 V" 1 "1 kHz" 0 "0" 0 "0" 0 "0" 0 "0" 0>
  <GND * 1 370 290 0 0 0 0>
  <GND * 1 600 290 0 0 0 0>
  <R R1 1 390 250 -92 -26 0 3 "5 kOhm" 1 "26.85" 0 "0.0" 0 "0.0" 0 "26.85" 0 "US" 0>
  <C C1 1 290 170 -26 17 0 0 "10 uF" 1 "" 0 "neutral" 0>
  <Eqn Eqn1 1 320 560 -21 13 0 0 "gain=dB(out.v/(1000*in.v))" 1 "phase=phase(out.v/in.v)" 1 "yes" 0>
  <R R2 1 600 200 -26 15 0 0 "10 kOhm" 1 "26.85" 0 "0.0" 0 "0.0" 0 "26.85" 0 "US" 0>
  <C C2 1 600 130 -26 17 0 0 "1 uF" 1 "" 0 "neutral" 0>
  <VCVS SRC1 1 460 230 -26 34 0 0 "1000000" 1 "0" 0>
  <.AC AC1 1 140 350 0 45 0 0 "log" 1 "0.01 Hz" 1 "10 kHz" 1 "200" 1 "no" 0>
</Components>
<Wires>
  <190 270 190 290 "" 0 0 0 "">
  <190 290 370 290 "" 0 0 0 "">
  <710 260 710 290 "" 0 0 0 "">
  <370 290 390 290 "" 0 0 0 "">
  <600 290 710 290 "" 0 0 0 "">
  <390 280 390 290 "" 0 0 0 "">
  <390 210 390 220 "" 0 0 0 "">
  <390 170 390 210 "" 0 0 0 "">
  <320 170 390 170 "" 0 0 0 "">
  <190 170 190 210 "" 0 0 0 "">
  <190 170 260 170 "" 0 0 0 "">
  <630 200 680 200 "" 0 0 0 "">
  <520 200 570 200 "" 0 0 0 "">
  <680 130 680 170 "" 0 0 0 "">
  <630 130 680 130 "" 0 0 0 "">
  <520 130 520 170 "" 0 0 0 "">
  <520 130 570 130 "" 0 0 0 "">
  <390 290 430 290 "" 0 0 0 "">
  <430 260 430 290 "" 0 0 0 "">
  <490 290 600 290 "" 0 0 0 "">
  <490 260 490 290 "" 0 0 0 "">
  <390 210 430 210 "" 0 0 0 "">
  <430 200 430 210 "" 0 0 0 "">
  <490 170 490 200 "" 0 0 0 "">
  <520 170 520 200 "" 0 0 0 "">
  <490 170 520 170 "" 0 0 0 "">
  <710 170 710 200 "" 0 0 0 "">
  <680 170 680 200 "" 0 0 0 "">
  <680 170 710 170 "" 0 0 0 "">
  <190 170 190 170 "in" 220 140 0 "">
  <710 170 710 170 "out" 740 140 0 "">
</Wires>
<Diagrams>
  <Rect 440 540 240 160 3 #c0c0c0 1 10 1 0 1 10000 1 0 20 123.126 1 -1 1 1 315 0 225 1 0 0 "" "" "">
	<"ngspice/ac.gain@frequency" #0000ff 0 3 0 0 0>
  </Rect>
  <Rect 450 810 240 160 3 #c0c0c0 1 10 1 0 0.2 1 1 -0.1 0.5 1.1 1 -0.1 0.5 1.1 315 0 225 1 0 0 "" "" "">
	<"ngspice/ac.phase@frequency" #0000ff 0 3 0 0 0>
  </Rect>
</Diagrams>
<Paintings>
</Paintings>
