<Qucs Schematic 24.2.0>
<Properties>
  <View=-210,-325,1553,990,0.747743,84,154>
  <Grid=10,10,1>
  <DataSet=circuito_fuenteControlada2.dat>
  <DataDisplay=circuito_fuenteControlada2.dpl>
  <OpenDisplay=0>
  <Script=circuito_fuenteControlada2.m>
  <RunScript=0>
  <showFrame=0>
  <FrameText0=Título>
  <FrameText1=Dibujado por:>
  <FrameText2=Fecha:>
  <FrameText3=Revisión:>
</Properties>
<Symbol>
</Symbol>
<Components>
  <GND * 1 600 290 0 0 0 0>
  <.AC AC1 1 140 350 0 46 0 0 "log" 1 "1 Hz" 1 "10 kHz" 1 "200" 1 "no" 0>
  <VCVS SRC1 1 450 210 -26 34 0 0 "100000" 1 "0" 0>
  <R R1 1 200 140 -26 15 0 0 "5 kOhm" 1 "26.85" 0 "0.0" 0 "0.0" 0 "26.85" 0 "US" 0>
  <R R3 1 560 140 -26 15 0 0 "10 kOhm" 1 "26.85" 0 "0.0" 0 "0.0" 0 "26.85" 0 "US" 0>
  <C C2 1 660 140 -26 17 0 0 "1 uF" 1 "" 0 "neutral" 0>
  <R RL 1 710 210 15 -26 0 1 "1 kOhm" 1 "26.85" 0 "0.0" 0 "0.0" 0 "26.85" 0 "US" 0>
  <Eqn Eqn1 1 170 540 -21 13 0 0 "gain=dB(out.v/(1000*in.v))" 1 "phase=phase(out.v/in.v)" 1 "yes" 0>
  <Vac V1 1 120 220 18 -26 0 1 "1 V" 1 "1 kHz" 0 "0" 0 "0" 0 "0" 0 "0" 0>
  <GND * 1 260 300 0 0 0 0>
  <R R2 1 390 220 -92 -26 0 3 "5 kOhm" 1 "26.85" 0 "0.0" 0 "0.0" 0 "26.85" 0 "US" 0>
  <C C1 1 280 220 -76 -26 0 3 "10 uF" 1 "" 0 "neutral" 0>
</Components>
<Wires>
  <340 290 390 290 "" 0 0 0 "">
  <390 290 420 290 "" 0 0 0 "">
  <420 240 420 290 "" 0 0 0 "">
  <480 290 600 290 "" 0 0 0 "">
  <480 240 480 290 "" 0 0 0 "">
  <230 140 280 140 "" 0 0 0 "">
  <420 140 420 180 "" 0 0 0 "">
  <390 140 420 140 "" 0 0 0 "">
  <480 140 480 180 "" 0 0 0 "">
  <480 140 530 140 "" 0 0 0 "">
  <590 140 630 140 "" 0 0 0 "">
  <690 140 710 140 "" 0 0 0 "">
  <710 140 710 180 "" 0 0 0 "">
  <600 290 710 290 "" 0 0 0 "">
  <710 240 710 290 "" 0 0 0 "">
  <120 290 260 290 "" 0 0 0 "">
  <120 250 120 290 "" 0 0 0 "">
  <120 140 170 140 "in" 190 90 50 "">
  <120 140 120 190 "" 0 0 0 "">
  <260 290 280 290 "" 0 0 0 "">
  <260 290 260 300 "" 0 0 0 "">
  <340 290 340 290 "" 0 0 0 "">
  <390 250 390 290 "" 0 0 0 "">
  <390 140 390 190 "" 0 0 0 "">
  <280 290 340 290 "" 0 0 0 "">
  <280 250 280 290 "" 0 0 0 "">
  <280 140 390 140 "" 0 0 0 "">
  <280 140 280 190 "" 0 0 0 "">
  <710 140 710 140 "out" 740 110 0 "">
</Wires>
<Diagrams>
  <Rect 421 899 441 249 3 #c0c0c0 1 10 1 0 0.2 1 1 -0.1 0.5 1.1 1 -0.1 0.5 1.1 315 0 225 1 0 0 "" "" "">
	<"ngspice/ac.phase@frequency" #0000ff 0 3 0 0 0>
  </Rect>
  <Rect 420 556 441 206 3 #c0c0c0 1 10 1 0 1 10000 1 -60 20 8.21567 1 -1 0.5 1 315 0 225 1 0 0 "" "" "">
	<"ngspice/ac.gain@frequency" #0000ff 0 3 0 0 0>
  </Rect>
</Diagrams>
<Paintings>
</Paintings>
